{ "frames": {
   "T:TitleScreen L:BG F:0": {
    "frame": { "x": 0, "y": 0, "w": 128, "h": 96 },
    "rotated": false,
    "trimmed": false,
    "spriteSourceSize": { "x": 0, "y": 0, "w": 128, "h": 96 },
    "sourceSize": { "w": 128, "h": 96 },
    "duration": 100
   },
   "T:TitleScreen L:Green Background F:0": {
    "frame": { "x": 128, "y": 0, "w": 128, "h": 96 },
    "rotated": false,
    "trimmed": false,
    "spriteSourceSize": { "x": 0, "y": 0, "w": 128, "h": 96 },
    "sourceSize": { "w": 128, "h": 96 },
    "duration": 100
   },
   "T:TitleScreen L:MoonSmall F:0": {
    "frame": { "x": 256, "y": 0, "w": 128, "h": 96 },
    "rotated": false,
    "trimmed": false,
    "spriteSourceSize": { "x": 0, "y": 0, "w": 128, "h": 96 },
    "sourceSize": { "w": 128, "h": 96 },
    "duration": 100
   },
   "T:TitleScreen L:Mountain F:0": {
    "frame": { "x": 384, "y": 0, "w": 128, "h": 96 },
    "rotated": false,
    "trimmed": false,
    "spriteSourceSize": { "x": 0, "y": 0, "w": 128, "h": 96 },
    "sourceSize": { "w": 128, "h": 96 },
    "duration": 100
   },
   "T:TitleScreen L:Tiles F:0": {
    "frame": { "x": 512, "y": 0, "w": 128, "h": 96 },
    "rotated": false,
    "trimmed": false,
    "spriteSourceSize": { "x": 0, "y": 0, "w": 128, "h": 96 },
    "sourceSize": { "w": 128, "h": 96 },
    "duration": 100
   },
   "T:TitleScreen L:Green F:0": {
    "frame": { "x": 640, "y": 0, "w": 128, "h": 96 },
    "rotated": false,
    "trimmed": false,
    "spriteSourceSize": { "x": 0, "y": 0, "w": 128, "h": 96 },
    "sourceSize": { "w": 128, "h": 96 },
    "duration": 100
   },
   "T:TitleScreen L:Witch F:0": {
    "frame": { "x": 768, "y": 0, "w": 128, "h": 96 },
    "rotated": false,
    "trimmed": false,
    "spriteSourceSize": { "x": 0, "y": 0, "w": 128, "h": 96 },
    "sourceSize": { "w": 128, "h": 96 },
    "duration": 100
   },
   "T:TitleScreen L:Text F:0": {
    "frame": { "x": 896, "y": 0, "w": 128, "h": 96 },
    "rotated": false,
    "trimmed": false,
    "spriteSourceSize": { "x": 0, "y": 0, "w": 128, "h": 96 },
    "sourceSize": { "w": 128, "h": 96 },
    "duration": 100
   },
   "T:TitleScreen L:GameOver F:0": {
    "frame": { "x": 1024, "y": 0, "w": 128, "h": 96 },
    "rotated": false,
    "trimmed": false,
    "spriteSourceSize": { "x": 0, "y": 0, "w": 128, "h": 96 },
    "sourceSize": { "w": 128, "h": 96 },
    "duration": 100
   }
 },
 "meta": {
  "app": "http://www.aseprite.org/",
  "version": "1.2.27-x64",
  "image": "TitleScreen.png",
  "format": "RGBA8888",
  "size": { "w": 1152, "h": 96 },
  "scale": "1",
  "frameTags": [
  ],
  "layers": [
   { "name": "BG", "opacity": 255, "blendMode": "normal" },
   { "name": "Green Background", "opacity": 255, "blendMode": "normal" },
   { "name": "MoonSmall", "opacity": 255, "blendMode": "normal" },
   { "name": "Mountain", "opacity": 255, "blendMode": "normal" },
   { "name": "Tiles", "opacity": 255, "blendMode": "normal" },
   { "name": "Green", "opacity": 255, "blendMode": "normal" },
   { "name": "Witch", "opacity": 255, "blendMode": "normal" },
   { "name": "Text", "opacity": 255, "blendMode": "normal" },
   { "name": "GameOver", "opacity": 255, "blendMode": "normal" }
  ],
  "slices": [
  ]
 }
}
